…
Make sure it’s clear what research question you are doing each operation
for!

<!------------------------- Start your work below ----------------------------->

``` r
### Answer 4.1 ###
m <- filter(cancer_sample, diagnosis == "M")  # filter out the malignant cancer
a_w <- select(m, area_worst)
print(a_w)
```

    ## # A tibble: 212 × 1
    ##    area_worst
    ##         <dbl>
    ##  1      2019 
    ##  2      1956 
    ##  3      1709 
    ##  4       568.
    ##  5      1575 
    ##  6       742.
    ##  7      1606 
    ##  8       897 
    ##  9       739.
    ## 10       711.
    ## # … with 202 more rows
…
