…
<!--------------------------- Start your work below --------------------------->

So the data I will use in the futher for doing my research, I will store
it in “cancer”

``` r
cancer <- select(cancer_ms2, ID, diagnosis, area_worst, compactness_worst) %>%
filter(area_worst > 0)%>%
arrange(area_worst)
na.omit(cancer)
```

    ## # A tibble: 569 × 4
    ##           ID diagnosis area_worst compactness_worst
    ##        <dbl> <chr>          <dbl>             <dbl>
    ##  1    862722 B               185.            0.120 
    ##  2    921362 B               224.            0.306 
    ##  3    894047 B               240.            0.0777
    ##  4  85713702 B               242.            0.136 
    ##  5    921092 B               248             0.0834
    ##  6 871001502 B               250.            0.431 
    ##  7    872113 B               259.            0.0706
    ##  8     92751 B               269.            0.0644
    ##  9    864726 B               270             0.188 
    ## 10    858981 B               274.            0.170 
    ## # … with 559 more rows
…
